<svg width="207" height="69" viewBox="0 0 207 69" fill="none" xmlns="http://www.w3.org/2000/svg">
<path fill-rule="evenodd" clip-rule="evenodd" d="M33.313 27.1443L65.5618 15.0576C57.7496 12.1806 64.8308 14.7769 33.1552 3.05859L1.05261 15.0693L33.313 27.1443Z" fill="url(#paint0_linear)"/>
<path fill-rule="evenodd" clip-rule="evenodd" d="M31.8862 64.7843H34.5644V54.5513H31.8862V64.7843Z" fill="#08CBE0"/>
<path fill-rule="evenodd" clip-rule="evenodd" d="M65.5618 53.8494V13.999V13.9522L65.5033 13.9756C57.7846 11.1337 64.749 13.6832 33.1552 1.99414L1.11109 13.9814L1.06431 13.9639V13.999L1.05261 14.0048L1.06431 14.0107V53.9137L33.3247 65.9653V65.8952L65.5618 53.8494Z" fill="#B91F2F"/>
<path fill-rule="evenodd" clip-rule="evenodd" d="M12.578 24.2029V42.5932C10.7068 42.8563 9.26245 44.4702 9.26245 46.4233C9.26245 48.5576 10.9933 50.2884 13.1276 50.2884C14.6889 50.2884 16.0338 49.3704 16.6478 48.0372L29.366 52.873C29.3485 53.0134 29.3426 53.1537 29.3426 53.294C29.3426 55.4342 31.0735 57.1651 33.2136 57.1651C35.348 57.1651 37.0788 55.4342 37.0788 53.294C37.0788 53.1829 37.073 53.0718 37.0671 52.9607L50.3116 47.9261C50.9139 49.2944 52.2764 50.2534 53.861 50.2534C56.0012 50.2534 57.732 48.5167 57.732 46.3823C57.732 44.4118 56.2643 42.792 54.3639 42.5464V24.1679C56.2643 23.9223 57.732 22.3025 57.732 20.3319C57.732 18.1976 56.0012 16.4609 53.861 16.4609C52.2354 16.4609 50.8437 17.4667 50.2707 18.8934L37.0788 13.8822C37.0554 12.6951 36.4999 11.6426 35.6403 10.9468C34.9913 10.3445 34.1375 9.97607 33.2019 9.97607C32.2196 9.97607 31.3308 10.3795 30.67 11.0403C29.8572 11.7479 29.3426 12.7945 29.3426 13.9582V13.9699L16.6595 18.7882C16.0572 17.4433 14.7006 16.5018 13.1276 16.5018C10.9933 16.5018 9.26245 18.2327 9.26245 20.3729C9.26245 22.3201 10.7068 23.934 12.578 24.2029ZM50.0075 20.0162C49.9958 20.1214 49.9958 20.2267 49.9958 20.3319C49.9958 20.6652 50.0368 20.9868 50.1128 21.2968L36.9619 26.2963C36.5818 24.7877 35.307 23.6299 33.7341 23.4135V17.7883C35.2602 17.5836 36.4999 16.4901 36.9268 15.0458L41.9848 16.9696L50.0075 20.0162ZM50.563 22.3551C51.1478 23.3024 52.1243 23.9807 53.2704 24.1562V42.5581C52.2471 42.716 51.3583 43.2715 50.7619 44.0668L33.7341 37.5936V31.0796C35.5468 30.834 36.9619 29.3312 37.073 27.4775L50.563 22.3551ZM50.218 45.0842C50.0719 45.4877 49.9958 45.9262 49.9958 46.3823C49.9958 46.5285 50.0017 46.6689 50.0192 46.8092L36.7923 51.838C36.2836 50.5808 35.1258 49.6511 33.7341 49.464V39.3888V38.8216L50.218 45.0842ZM13.6773 24.2029C14.8117 24.0392 15.7882 23.3843 16.3847 22.4604L19.4897 23.6416L29.3426 27.3898C29.4128 29.2668 30.8162 30.8047 32.6406 31.0737V37.7457L32.5938 37.6112L16.1157 43.9615C15.5134 43.2306 14.6538 42.7277 13.6773 42.5932V24.2029ZM16.8583 21.4137C16.946 21.0862 16.9986 20.7354 16.9986 20.3729C16.9986 20.2091 16.9869 20.0512 16.9694 19.8992L18.4488 19.3379L29.5239 15.1277C29.9625 16.5194 31.167 17.5661 32.6406 17.7824V23.4194C31.1202 23.6474 29.8864 24.7584 29.483 26.2145L16.8583 21.4137ZM16.9636 46.932C16.9869 46.7683 16.9986 46.5929 16.9986 46.4233C16.9986 45.9029 16.8992 45.4117 16.7121 44.9556L32.6406 38.8216V39.3888V49.4698C31.2957 49.6686 30.1847 50.5516 29.6584 51.7562L16.9636 46.932Z" fill="#76151F"/>
<path fill-rule="evenodd" clip-rule="evenodd" d="M33.3833 37.459L33.009 38.5466L54.6329 46.7623L55.0072 45.6747L33.3833 37.459Z" fill="#76151F"/>
<path d="M95.4715 28.1675H90.6591V41.4236H87.9985V28.1675H83.2328V25.998H95.4715V28.1675ZM106.342 35.8101C106.342 37.5877 105.938 39.0028 105.137 40.0553C104.33 41.1137 103.249 41.64 101.892 41.64C100.635 41.64 99.6291 41.2307 98.8747 40.4003V45.8326H96.296V29.9685H98.6701L98.7753 31.1263C99.5355 30.2082 100.559 29.7521 101.857 29.7521C103.26 29.7521 104.354 30.2725 105.149 31.3134C105.944 32.3542 106.342 33.7986 106.342 35.6522V35.8101ZM103.781 35.582C103.781 34.4418 103.553 33.5354 103.097 32.863C102.64 32.1905 101.991 31.8572 101.138 31.8572C100.085 31.8572 99.3308 32.2899 98.8747 33.1553V38.2485C99.3367 39.1373 100.103 39.5817 101.161 39.5817C101.98 39.5817 102.623 39.2542 103.085 38.5876C103.547 37.9269 103.781 36.9269 103.781 35.582ZM115.68 29.9685H118.242V41.4236H115.68V33.781L111.184 41.4236H108.622V29.9685H111.184V37.6111L115.68 29.9685ZM121.025 39.3653C121.738 38.5701 122.218 37.8099 122.463 37.0907C122.703 36.3831 122.855 35.4592 122.902 34.3482L123.048 29.9685H131.007V39.3653H132.597V44.8327H130.03V41.4236H122.68V44.8327H120.072L120.083 39.3653H121.025ZM124.048 39.3653H128.439V32.1788H125.551L125.475 34.3716C125.375 36.4708 124.902 38.1374 124.048 39.3653ZM143.567 25.998L148.017 37.8216L152.455 25.998H155.923V41.4236H153.25V36.3422L153.513 29.5358L148.958 41.4236H147.04L142.497 29.5475L142.76 36.3422V41.4236H140.093V25.998H143.567ZM163.893 41.64C162.261 41.64 160.94 41.1313 159.922 40.1021C158.911 39.073 158.402 37.7047 158.402 35.9914V35.6756C158.402 34.5295 158.624 33.5062 159.068 32.6057C159.507 31.7052 160.127 31.0035 160.928 30.5006C161.723 29.9977 162.612 29.7521 163.594 29.7521C165.156 29.7521 166.366 30.2491 167.214 31.2491C168.068 32.2431 168.489 33.6582 168.489 35.4768V36.5235H160.998C161.08 37.4649 161.396 38.2075 161.945 38.7572C162.501 39.3069 163.203 39.5817 164.039 39.5817C165.22 39.5817 166.179 39.1081 166.922 38.1549L168.313 39.4764C167.851 40.1664 167.237 40.6986 166.471 41.0728C165.705 41.4529 164.846 41.64 163.893 41.64ZM163.583 31.8104C162.881 31.8104 162.308 32.0619 161.875 32.5589C161.443 33.0501 161.162 33.7459 161.045 34.6347H165.945V34.4418C165.892 33.5764 165.664 32.9214 165.261 32.477C164.857 32.0326 164.296 31.8104 163.583 31.8104ZM170.535 39.3653C171.243 38.5701 171.722 37.8099 171.968 37.0907C172.214 36.3831 172.36 35.4592 172.407 34.3482L172.553 29.9685H180.511V39.3653H182.102V44.8327H179.54V41.4236H172.184V44.8327H169.576L169.588 39.3653H170.535ZM173.553 39.3653H177.95V32.1788H175.055L174.979 34.3716C174.886 36.4708 174.406 38.1374 173.553 39.3653ZM190.908 29.9685H193.475V41.4236H190.908V33.781L186.417 41.4236H183.856V29.9685H186.417V37.6111L190.908 29.9685ZM203.059 41.4236C202.948 41.2073 202.848 40.8564 202.767 40.3594C201.942 41.2131 200.942 41.64 199.755 41.64C198.603 41.64 197.668 41.3125 196.937 40.6576C196.206 39.9969 195.849 39.1841 195.849 38.2134C195.849 36.9913 196.299 36.0498 197.206 35.3949C198.112 34.74 199.41 34.4184 201.1 34.4184H202.679V33.6641C202.679 33.0735 202.509 32.5998 202.182 32.2373C201.848 31.8806 201.346 31.7052 200.667 31.7052C200.083 31.7052 199.603 31.8514 199.223 32.1437C198.855 32.4361 198.662 32.8103 198.662 33.2606H196.089C196.089 32.6349 196.299 32.0502 196.714 31.5005C197.13 30.9567 197.697 30.524 198.416 30.2199C199.129 29.9042 199.93 29.7521 200.813 29.7521C202.158 29.7521 203.228 30.0854 204.024 30.7637C204.825 31.4362 205.234 32.3835 205.252 33.6056V38.7747C205.252 39.8097 205.398 40.6284 205.69 41.2424V41.4236H203.059ZM200.229 39.5817C200.737 39.5817 201.217 39.4589 201.667 39.2075C202.112 38.9619 202.451 38.6286 202.679 38.2075V36.044H201.287C200.34 36.044 199.621 36.2077 199.141 36.541C198.662 36.8743 198.416 37.348 198.416 37.9561C198.416 38.4531 198.586 38.8449 198.913 39.1373C199.241 39.4297 199.679 39.5817 200.229 39.5817Z" fill="#B91F2F"/>
<path fill-rule="evenodd" clip-rule="evenodd" d="M20.9457 46.037C22.8929 46.037 24.4659 44.4582 24.4659 42.5168C24.4659 40.9965 23.4952 39.6984 22.1386 39.2072C22.0801 37.7453 21.9515 33.7632 22.2789 32.9445C22.4193 32.582 24.425 30.3833 24.7933 29.974C26.2201 28.3777 26.1032 28.8162 26.0856 25.7931C26.0739 23.9102 26.0272 21.8811 26.1149 20.0158L26.2377 19.893C27.4715 19.3433 28.3311 18.1095 28.3311 16.6769C28.3311 14.7356 26.7581 13.1567 24.8167 13.1567C22.8695 13.1567 21.2966 14.7356 21.2966 16.6769C21.2966 18.168 22.2263 19.4428 23.5361 19.9515L23.6005 20.0158C23.6355 21.8578 23.6122 23.7056 23.6239 25.5475C23.6472 28.1028 23.0683 28.1262 21.8579 29.4302C21.2381 30.0968 19.7996 31.4125 19.6651 32.5586C19.5072 33.9035 19.6417 37.6927 19.6476 39.2481C18.3494 39.7627 17.4314 41.0316 17.4314 42.5168C17.4314 44.4582 19.0044 46.037 20.9457 46.037Z" fill="#4F1212"/>
<path fill-rule="evenodd" clip-rule="evenodd" d="M45.0605 52.2239C47.0077 52.2239 48.5807 50.651 48.5807 48.7096C48.5807 47.2068 47.6392 45.9262 46.3177 45.4233C46.3294 43.9498 46.4756 41.5699 46.306 40.3068C46.1657 39.2075 44.6512 37.9503 43.9963 37.3071C42.7215 36.0557 42.1134 36.0382 42.1368 33.5822C42.1485 31.8923 42.1251 30.1907 42.1543 28.5008C43.4759 27.9921 44.4114 26.7115 44.4114 25.2145C44.4114 23.2732 42.8326 21.7002 40.8913 21.7002C38.9499 21.7002 37.377 23.2732 37.377 25.2145C37.377 26.6705 38.2599 27.9219 39.5171 28.454C39.599 30.1966 39.5522 32.0736 39.5405 33.822C39.523 36.7223 39.3943 36.3013 40.9088 37.8275C41.2889 38.2193 43.4057 40.3302 43.5577 40.6752C43.8793 41.4237 43.7799 44.0843 43.7156 45.4584C42.4409 45.9905 41.5462 47.2419 41.5462 48.7096C41.5462 50.651 43.1192 52.2239 45.0605 52.2239Z" fill="#4F1212"/>
<defs>
<linearGradient id="paint0_linear" x1="33.1668" y1="-3.92327" x2="33.4475" y2="44.2422" gradientUnits="userSpaceOnUse">
<stop stop-color="#1087C7"/>
<stop offset="0.0313725" stop-color="#0BB6D6"/>
<stop offset="0.858824" stop-color="#05E6E6"/>
<stop offset="1" stop-color="#05E6E6"/>
</linearGradient>
</defs>
</svg>
